{
  "name": "Pong",
  "assets": [
    {
      "id": "0",
      "name": "Sprites",
      "type": null,
      "children": [
        {
          "id": "5",
          "name": "Raquettes",
          "type": "sprite"
        },
        {
          "id": "6",
          "name": "Balle",
          "type": "sprite"
        }
      ]
    },
    {
      "id": "1",
      "name": "Script",
      "type": null,
      "children": [
        {
          "id": "3",
          "name": "Comportements",
          "type": "script"
        }
      ]
    },
    {
      "id": "2",
      "name": "Jeu",
      "type": "scene"
    },
    {
      "id": "7",
      "name": "Font",
      "type": "font"
    }
  ]
}